

{
	"sProcessing":   "Attendre...",
	"sLengthMenu":   "Afficher les entrées _MENU_",
	"sZeroRecords":  "Aucune entrée.",
	"sInfo":         "Messages de _START_ à _END_ sur _TOTAL_ messages",
	"sInfoEmpty":    "Enregistrements de 0 à 0 sur 0 enregistrements",
	"sInfoFiltered": "(filtré à partir des enregistrements _MAX_)",
	"sInfoPostFix":  "",
	"sSearch":       "Chercher:",
	"sUrl":          "",
	"oPaginate": {
		"sFirst": "Première",
		"sPrevious": "Précédent",
		"sNext": "Prochain",
		"sLast": "Dernier"
	},
	"oAria": {
		"sSortAscending":  ": activer pour trier la colonne en ordre croissant",
		"sSortDescending": ": activer pour trier les colonnes en ordre décroissant"
	}
}
